<?xml version="1.0" encoding="UTF-8" standalone="no"?>
<!DOCTYPE svg PUBLIC "-//W3C//DTD SVG 1.1//EN" "http://www.w3.org/Graphics/SVG/1.1/DTD/svg11.dtd">
<svg width="100%" height="100%" viewBox="0 0 53 53" version="1.1" xmlns="http://www.w3.org/2000/svg" xmlns:xlink="http://www.w3.org/1999/xlink" xml:space="preserve" xmlns:serif="http://www.serif.com/" style="fill-rule:evenodd;clip-rule:evenodd;stroke-linecap:round;stroke-linejoin:round;stroke-miterlimit:1.5;">
    <g transform="matrix(1,0,0,1,-4684.6,-1813.38)">
        <g transform="matrix(2.09106,0,0,2.05715,4981.18,443.044)">
            <g transform="matrix(1.32841,0,0,1.3503,-6801.88,515.395)">
                <circle cx="5023.01" cy="121.083" r="9" style="fill:rgb(0,31,53);stroke:white;stroke-width:0.9px;"/>
            </g>
            <g transform="matrix(1,0,0,1,9.09495e-13,-0.201288)">
                <g transform="matrix(1.03962,0,0,1.05676,-2823.23,-1184.34)">
                    <ellipse cx="2591.27" cy="1763.35" rx="7.125" ry="7.125" style="fill:url(#_Linear1);"/>
                </g>
                <g transform="matrix(0.478227,0,0,0.486108,-1397.39,-198.896)">
                    <text x="2647.65px" y="1810.54px" style="font-family:'Calibri-Bold', 'Calibri', sans-serif;font-weight:700;font-size:15px;fill:white;">2</text>
                </g>
            </g>
        </g>
    </g>
    <defs>
        <linearGradient id="_Linear1" x1="0" y1="0" x2="1" y2="0" gradientUnits="userSpaceOnUse" gradientTransform="matrix(14.25,0,0,14.25,2584.15,1763.35)"><stop offset="0" style="stop-color:rgb(217,24,167);stop-opacity:1"/><stop offset="1" style="stop-color:rgb(161,22,124);stop-opacity:1"/></linearGradient>
    </defs>
</svg>
