<?xml version="1.0" encoding="UTF-8" standalone="no"?>
<!DOCTYPE svg PUBLIC "-//W3C//DTD SVG 1.1//EN" "http://www.w3.org/Graphics/SVG/1.1/DTD/svg11.dtd">
<svg width="100%" height="100%" viewBox="0 0 19 26" version="1.1" xmlns="http://www.w3.org/2000/svg" xmlns:xlink="http://www.w3.org/1999/xlink" xml:space="preserve" xmlns:serif="http://www.serif.com/" style="fill-rule:evenodd;clip-rule:evenodd;stroke-linejoin:round;stroke-miterlimit:1.41421;">
    <g transform="matrix(1,0,0,1,-6221.35,-1490.5)">
        <g transform="matrix(1,0,0,1,1291.41,-2.69871)">
            <g transform="matrix(0.05473,0,0,0.05473,4926.79,1493.2)">
                <g>
                    <path d="M283.733,85.333C307.2,85.333 326.4,66.133 326.4,42.666C326.4,19.2 307.2,0 283.733,0C260.266,0 241.066,19.2 241.066,42.667C241.066,66.134 260.267,85.333 283.733,85.333Z" style="fill:rgb(0,200,255);fill-rule:nonzero;"/>
                    <path d="M401.067,245.333L401.067,202.666C361.6,202.666 327.467,181.333 308.267,150.399L288,116.267C280.533,103.467 266.667,96 251.733,96C246.4,96 241.066,97.067 235.733,99.2L123.733,145.067L123.733,245.334L166.4,245.334L166.4,173.867L203.733,158.934L170.666,330.667L66.133,310.4L57.6,352C57.6,352 206.933,380.8 206.933,381.867L227.2,288L273.067,330.667L273.067,458.667L315.734,458.667L315.734,297.6L272,253.867L284.8,189.867C312.533,224 354.133,245.333 401.067,245.333Z" style="fill:rgb(0,200,255);fill-rule:nonzero;"/>
                </g>
            </g>
        </g>
    </g>
</svg>
