<?xml version="1.0" encoding="UTF-8" standalone="no"?>
<!DOCTYPE svg PUBLIC "-//W3C//DTD SVG 1.1//EN" "http://www.w3.org/Graphics/SVG/1.1/DTD/svg11.dtd">
<svg width="100%" height="100%" viewBox="0 0 28 28" version="1.1" xmlns="http://www.w3.org/2000/svg" xmlns:xlink="http://www.w3.org/1999/xlink" xml:space="preserve" xmlns:serif="http://www.serif.com/" style="fill-rule:evenodd;clip-rule:evenodd;stroke-linecap:round;stroke-linejoin:round;stroke-miterlimit:1.5;">
    <g transform="matrix(1,0,0,1,-5657.44,-1264.03)">
        <g transform="matrix(1,0,0,1,474.073,-0.0320449)">
            <g transform="matrix(0.0511811,0,0,0.0511811,4929.04,1154.69)">
                <g>
                    <g>
                        <g>
                            <g>
                                <circle cx="5235.9" cy="2403.61" r="254" style="fill:rgb(0,31,53);stroke:white;stroke-width:25.4px;"/>
                            </g>
                        </g>
                    </g>
                </g>
            </g>
        </g>
        <g transform="matrix(0.0806104,0,0,0.0806104,5628.43,1262.75)">
            <g transform="matrix(0.765211,0,0,0.765211,415.639,56.7142)">
                <g transform="matrix(1.12999,0,0,1.12999,-23.46,-30.5788)">
                    <path d="M228.037,101.786C228.037,114.671 238.521,125.155 251.406,125.155C264.291,125.155 274.775,114.671 274.775,101.786C274.775,88.901 264.291,78.417 251.406,78.417C238.521,78.417 228.037,88.9 228.037,101.786Z" style="fill:rgb(193,0,255);fill-rule:nonzero;"/>
                    <path d="M275.322,132.91C275.268,132.892 269.38,131.085 269.38,131.085C267.248,130.434 264.932,130.835 263.147,132.171L251.406,140.962L239.665,132.171C237.879,130.834 235.562,130.433 233.432,131.085C233.432,131.085 227.544,132.892 227.49,132.91C218.016,136.069 211.651,144.9 211.651,154.886L211.651,190.215C211.651,191.578 212.049,192.911 212.799,194.049L224.647,212.08L224.647,259.432C224.647,263.289 227.773,266.415 231.63,266.415L271.183,266.415C275.04,266.415 278.166,263.289 278.166,259.432L278.166,212.08L290.014,194.049C290.763,192.91 291.162,191.577 291.162,190.215L291.162,154.886C291.162,144.9 284.796,136.069 275.322,132.91Z" style="fill:rgb(193,0,255);fill-rule:nonzero;"/>
                </g>
                <g transform="matrix(1,0,0,1,-20.2646,-8.10579)">
                    <path d="M45.594,125.155C58.479,125.155 68.963,114.671 68.963,101.786C68.963,88.901 58.479,78.417 45.594,78.417C32.709,78.417 22.224,88.9 22.224,101.786C22.224,114.672 32.708,125.155 45.594,125.155Z" style="fill:rgb(255,189,0);fill-rule:nonzero;"/>
                    <path d="M69.51,132.91C69.456,132.892 63.568,131.085 63.568,131.085C61.435,130.434 59.121,130.835 57.335,132.171L45.594,140.962L33.853,132.171C32.068,130.834 29.75,130.433 27.62,131.085C27.62,131.085 21.732,132.892 21.678,132.91C12.204,136.069 5.839,144.9 5.839,154.886L5.839,190.215C5.839,191.578 6.237,192.911 6.987,194.049L18.835,212.08L18.835,259.432C18.835,263.289 21.961,266.415 25.818,266.415L65.37,266.415C69.227,266.415 72.353,263.289 72.353,259.432L72.353,212.08L84.201,194.049C84.95,192.91 85.349,191.577 85.349,190.215L85.349,154.886C85.349,144.9 78.983,136.069 69.51,132.91Z" style="fill:rgb(255,189,0);fill-rule:nonzero;"/>
                </g>
                <g transform="matrix(1.12015,0,0,1.12015,-26,-22.0945)">
                    <g>
                        <path d="M178.642,68.851C178.642,52.231 165.12,38.709 148.5,38.709C131.88,38.709 118.358,52.231 118.358,68.851C118.358,85.472 131.88,98.993 148.5,98.993C165.12,98.993 178.642,85.472 178.642,68.851Z" style="fill:rgb(92,239,234);fill-rule:nonzero;"/>
                        <path d="M181.607,113.601L181.557,113.585L172.954,110.945C171.597,110.528 170.147,111.246 169.659,112.585L151.569,162.22C150.525,165.083 146.476,165.083 145.432,162.22L127.342,112.585C126.948,111.504 125.928,110.826 124.834,110.826C124.575,110.826 115.454,113.581 115.454,113.581C104.464,117.243 97.122,127.431 97.122,138.951L97.122,191.457C97.122,191.978 97.275,192.488 97.561,192.924L116.437,221.648L116.437,294.328C116.437,295.804 117.633,297 119.109,297L177.892,297C179.368,297 180.564,295.804 180.564,294.328L180.564,221.648L199.44,192.924C199.726,192.488 199.879,191.978 199.879,191.457L199.879,138.813C199.878,127.343 192.507,117.172 181.607,113.601Z" style="fill:rgb(92,239,234);fill-rule:nonzero;"/>
                    </g>
                    <path d="M155.568,112.556C154.821,111.742 153.728,111.332 152.622,111.332L144.377,111.332C143.272,111.332 142.179,111.742 141.431,112.556C140.274,113.817 140.106,115.638 140.927,117.061L145.334,123.705L143.271,141.11L147.334,151.918C147.73,153.005 149.267,153.005 149.664,151.918L153.727,141.11L151.664,123.705L156.071,117.061C156.893,115.638 156.725,113.817 155.568,112.556Z" style="fill:rgb(92,239,234);fill-rule:nonzero;"/>
                </g>
            </g>
        </g>
    </g>
</svg>
