<?xml version="1.0" encoding="UTF-8" standalone="no"?>
<!DOCTYPE svg PUBLIC "-//W3C//DTD SVG 1.1//EN" "http://www.w3.org/Graphics/SVG/1.1/DTD/svg11.dtd">
<svg width="100%" height="100%" viewBox="0 0 28 28" version="1.1" xmlns="http://www.w3.org/2000/svg" xmlns:xlink="http://www.w3.org/1999/xlink" xml:space="preserve" xmlns:serif="http://www.serif.com/" style="fill-rule:evenodd;clip-rule:evenodd;stroke-linecap:round;stroke-linejoin:round;stroke-miterlimit:1.5;">
    <g transform="matrix(1,0,0,1,-5688.44,-1263.45)">
        <g transform="matrix(1,0,0,1,474.073,-0.0320449)">
            <g transform="matrix(0.0511811,0,0,0.0511811,4960.04,1154.12)">
                <g>
                    <g>
                        <g>
                            <g>
                                <circle cx="5235.9" cy="2403.61" r="254" style="fill:rgb(0,31,53);stroke:white;stroke-width:25.4px;"/>
                            </g>
                        </g>
                    </g>
                </g>
            </g>
        </g>
        <g transform="matrix(0.0806104,0,0,0.0806104,5628.43,1262.75)">
            <g transform="matrix(0.856148,0,0,0.856148,792.002,37.5468)">
                <g>
                    <path d="M178.642,68.851C178.642,52.231 165.12,38.709 148.5,38.709C131.88,38.709 118.358,52.231 118.358,68.851C118.358,85.472 131.88,98.993 148.5,98.993C165.12,98.993 178.642,85.472 178.642,68.851Z" style="fill:rgb(246,206,0);fill-rule:nonzero;"/>
                    <path d="M181.607,113.601L181.557,113.585L172.954,110.945C171.597,110.528 170.147,111.246 169.659,112.585L151.569,162.22C150.525,165.083 146.476,165.083 145.432,162.22L127.342,112.585C126.948,111.504 125.928,110.826 124.834,110.826C124.575,110.826 115.454,113.581 115.454,113.581C104.464,117.243 97.122,127.431 97.122,138.951L97.122,191.457C97.122,191.978 97.275,192.488 97.561,192.924L116.437,221.648L116.437,294.328C116.437,295.804 117.633,297 119.109,297L177.892,297C179.368,297 180.564,295.804 180.564,294.328L180.564,221.648L199.44,192.924C199.726,192.488 199.879,191.978 199.879,191.457L199.879,138.813C199.878,127.343 192.507,117.172 181.607,113.601Z" style="fill:rgb(246,206,0);fill-rule:nonzero;"/>
                </g>
                <path d="M155.568,112.556C154.821,111.742 153.728,111.332 152.622,111.332L144.377,111.332C143.272,111.332 142.179,111.742 141.431,112.556C140.274,113.817 140.106,115.638 140.927,117.061L145.334,123.705L143.271,141.11L147.334,151.918C147.73,153.005 149.267,153.005 149.664,151.918L153.727,141.11L151.664,123.705L156.071,117.061C156.893,115.638 156.725,113.817 155.568,112.556Z" style="fill:rgb(246,206,0);fill-rule:nonzero;"/>
            </g>
        </g>
    </g>
</svg>
